<?xml version="1.0" encoding="utf-8"?>
<!-- Generator: Adobe Illustrator 20.1.0, SVG Export Plug-In . SVG Version: 6.00 Build 0)  -->
<svg version="1.1" id="Capa_1" xmlns="http://www.w3.org/2000/svg" xmlns:xlink="http://www.w3.org/1999/xlink" x="0px" y="0px"
	 viewBox="0 0 168 214.5" style="enable-background:new 0 0 168 214.5;" xml:space="preserve">
<style type="text/css">
	.st0{fill:#414654;}
	.st1{fill:#2C2E3A;}
	.st2{fill:#343A54;}
	.st3{opacity:0.17;fill:#F2F2F2;}
</style>
<g>
	<g>
		<path class="st0" d="M109.2,210.1l-92.7-28.8c-0.5-0.2-0.8-0.7-0.7-1.3L69.6,7.7c0.3-1.1,1.5-1.6,2.5-1.3l90.7,28.2
			c1.1,0.3,1.6,1.5,1.3,2.5l-53.6,172.3C110.3,210,109.8,210.3,109.2,210.1z"/>
		<path class="st1" d="M113.3,185.6l-86.1-26.8L68.5,25.9c0.2-0.5,0.7-0.8,1.3-0.7L154,51.5c0.5,0.2,0.8,0.7,0.7,1.3L113.3,185.6z"
			/>
		<path class="st2" d="M122,33l-15.3-4.8c-0.3-0.1-0.5-0.4-0.4-0.7l0,0c0.1-0.3,0.4-0.5,0.7-0.4l15.3,4.8c0.3,0.1,0.5,0.4,0.4,0.7
			l0,0C122.6,32.9,122.3,33.1,122,33z"/>
		
			<ellipse transform="matrix(0.2972 -0.9548 0.9548 0.2972 46.7132 115.9374)" class="st2" cx="102.1" cy="26.2" rx="1.3" ry="1.3"/>
		<g>
			
				<ellipse transform="matrix(0.2972 -0.9548 0.9548 0.2972 -128.6826 192.7802)" class="st1" cx="66.6" cy="183.8" rx="7.4" ry="7.4"/>
			<g>
				<path class="st0" d="M67.4,186.9l-3.1-1c-0.4-0.1-0.7-0.6-0.5-1l1.1-3.5c0.1-0.4,0.6-0.7,1-0.5l3.1,1c0.4,0.1,0.7,0.6,0.5,1
					l-1.1,3.5C68.3,186.7,67.8,187,67.4,186.9z M65.8,181c-0.3-0.1-0.6,0.1-0.7,0.4l-1.1,3.5c-0.1,0.3,0.1,0.6,0.3,0.7l3.1,1
					c0.3,0.1,0.6-0.1,0.7-0.3l1.1-3.5c0.1-0.3-0.1-0.6-0.3-0.7L65.8,181z"/>
			</g>
		</g>
	</g>
	<path class="st3" d="M154.3,53.9L50,85.4l18.1-58.3c0,0,1.1-2,2.8-1.5c1.7,0.5,81.8,25.5,81.8,25.5S154.9,51.9,154.3,53.9z"/>
</g>
</svg>
